{   "deviceID" : 12,
		"measurements" : [
		{
			"probeID" : 10,
			"timestamp" : 123124134134134,
			"probeValue" : [
			123, 123,1231,123,123,123,123,123,123,12,312,3123
			]
		},
		{
			"probeID" : 14,
			"timestamp" : 123124134134134,
			"probeValue" : [
			123, 123,1231,123,123,123,123,123,123,12,312,3123
			]
		}]
}
